Logging Timestamp 2020-05-12 09.25.45

Namespace(activate_random=False, adaptive=False, agent_lr=0.001, batch=10, batch_count=10, checkpoint=-1, data_dir='data_new', epochs=5, memory_usage=True, model='spottune', model_state='models/model_spottune_2020-05-11 16.20.48.pth', no_scheduler=False, num_workers=4, opt_lr=0.001, out='models/model_spottune_2020-05-12 09.25.45.pth', plot_hist=True, save_best=True, stop_accuracy=0.4, teacher_file='')
Model spottune require grad = False
device cuda:0
Adaptive
Weights [0.5, 1, 1, 1, 1, 1, 1, 0.5]
Optim SpotTune
Batch size 10
Classes: good celeb casino guns illegal narco porno yellow
Run training

Step: 100; 48.57.s Loss: 0.8146; AccMul 0.7150 AccBin 0.8330
Step: 200; 85.44.s Loss: 0.7796; AccMul 0.7270 AccBin 0.8435
Step: 300; 121.87.s Loss: 0.7773; AccMul 0.7277 AccBin 0.8467
Step: 400; 159.11.s Loss: 0.7735; AccMul 0.7263 AccBin 0.8470
Step: 500; 196.35.s Loss: 0.7807; AccMul 0.7282 AccBin 0.8476
Step: 600; 232.80.s Loss: 0.7785; AccMul 0.7255 AccBin 0.8460
Step: 700; 268.20.s Loss: 0.7666; AccMul 0.7333 AccBin 0.8521
Step: 800; 305.71.s Loss: 0.7643; AccMul 0.7315 AccBin 0.8524
Step: 900; 343.85.s Loss: 0.7673; AccMul 0.7318 AccBin 0.8522
Step: 1000; 381.36.s Loss: 0.7594; AccMul 0.7344 AccBin 0.8524
Step: 1100; 418.72.s Loss: 0.7620; AccMul 0.7355 AccBin 0.8520
Step: 1200; 456.10.s Loss: 0.7605; AccMul 0.7368 AccBin 0.8517
Step: 1300; 494.03.s Loss: 0.7599; AccMul 0.7371 AccBin 0.8534
Step: 1400; 532.20.s Loss: 0.7591; AccMul 0.7376 AccBin 0.8534
Step: 1500; 570.33.s Loss: 0.7635; AccMul 0.7353 AccBin 0.8517
Step: 1600; 608.47.s Loss: 0.7674; AccMul 0.7338 AccBin 0.8498
Step: 1700; 646.58.s Loss: 0.7697; AccMul 0.7333 AccBin 0.8500
Step: 1800; 684.69.s Loss: 0.7701; AccMul 0.7332 AccBin 0.8499
Step: 1900; 722.39.s Loss: 0.7718; AccMul 0.7333 AccBin 0.8495
Step: 2000; 758.54.s Loss: 0.7702; AccMul 0.7332 AccBin 0.8495
Step: 2100; 794.63.s Loss: 0.7706; AccMul 0.7325 AccBin 0.8488
Step: 2200; 830.74.s Loss: 0.7720; AccMul 0.7318 AccBin 0.8478
Step: 2300; 866.81.s Loss: 0.7701; AccMul 0.7326 AccBin 0.8479
Step: 2400; 902.88.s Loss: 0.7680; AccMul 0.7331 AccBin 0.8482
Step: 2500; 938.95.s Loss: 0.7668; AccMul 0.7330 AccBin 0.8480
Step: 2600; 974.44.s Loss: 0.7655; AccMul 0.7335 AccBin 0.8479
Step: 2700; 1009.58.s Loss: 0.7637; AccMul 0.7337 AccBin 0.8485
Step: 2800; 1044.71.s Loss: 0.7620; AccMul 0.7343 AccBin 0.8489
Step: 2900; 1080.23.s Loss: 0.7597; AccMul 0.7353 AccBin 0.8495
Step: 3000; 1117.62.s Loss: 0.7604; AccMul 0.7352 AccBin 0.8496
Step: 3100; 1154.98.s Loss: 0.7608; AccMul 0.7352 AccBin 0.8490
Step: 3200; 1192.35.s Loss: 0.7614; AccMul 0.7352 AccBin 0.8488
Step: 3300; 1229.59.s Loss: 0.7617; AccMul 0.7348 AccBin 0.8490
Step: 3400; 1267.05.s Loss: 0.7632; AccMul 0.7342 AccBin 0.8479
Step: 3500; 1304.40.s Loss: 0.7642; AccMul 0.7341 AccBin 0.8476
Step: 3600; 1341.74.s Loss: 0.7645; AccMul 0.7342 AccBin 0.8476
Step: 3700; 1378.77.s Loss: 0.7635; AccMul 0.7346 AccBin 0.8474
Step: 3800; 1416.11.s Loss: 0.7626; AccMul 0.7354 AccBin 0.8479
Step: 3900; 1453.48.s Loss: 0.7628; AccMul 0.7354 AccBin 0.8476
Step: 4000; 1490.76.s Loss: 0.7626; AccMul 0.7352 AccBin 0.8477
Step: 4100; 1528.06.s Loss: 0.7637; AccMul 0.7349 AccBin 0.8474
Step: 4200; 1565.33.s Loss: 0.7640; AccMul 0.7343 AccBin 0.8473
Step: 4300; 1602.63.s Loss: 0.7638; AccMul 0.7346 AccBin 0.8473
Step: 4400; 1639.95.s Loss: 0.7636; AccMul 0.7348 AccBin 0.8474
Step: 4500; 1677.27.s Loss: 0.7632; AccMul 0.7347 AccBin 0.8476
Step: 4600; 1714.95.s Loss: 0.7619; AccMul 0.7351 AccBin 0.8478
Step: 4700; 1752.35.s Loss: 0.7620; AccMul 0.7352 AccBin 0.8481
Step: 4800; 1789.78.s Loss: 0.7643; AccMul 0.7350 AccBin 0.8479
Step: 4900; 1827.13.s Loss: 0.7640; AccMul 0.7348 AccBin 0.8477
Step: 5000; 1864.40.s Loss: 0.7639; AccMul 0.7348 AccBin 0.8475
Step: 5100; 1901.66.s Loss: 0.7654; AccMul 0.7345 AccBin 0.8472
Step: 5200; 1938.87.s Loss: 0.7660; AccMul 0.7341 AccBin 0.8467
Step: 5300; 1976.11.s Loss: 0.7669; AccMul 0.7340 AccBin 0.8464
Step: 5400; 2011.37.s Loss: 0.7676; AccMul 0.7341 AccBin 0.8463
Step: 5500; 2046.54.s Loss: 0.7676; AccMul 0.7337 AccBin 0.8459
Step: 5600; 2081.73.s Loss: 0.7696; AccMul 0.7330 AccBin 0.8454
Step: 5700; 2116.93.s Loss: 0.7700; AccMul 0.7329 AccBin 0.8451
Step: 5800; 2152.10.s Loss: 0.7697; AccMul 0.7330 AccBin 0.8455
Step: 5900; 2187.23.s Loss: 0.7695; AccMul 0.7331 AccBin 0.8456
Step: 6000; 2222.44.s Loss: 0.7710; AccMul 0.7328 AccBin 0.8456
Step: 6100; 2259.25.s Loss: 0.7712; AccMul 0.7327 AccBin 0.8456
Step: 6200; 2296.06.s Loss: 0.7721; AccMul 0.7325 AccBin 0.8453
Step: 6300; 2331.95.s Loss: 0.7720; AccMul 0.7328 AccBin 0.8454
Step: 6400; 2368.87.s Loss: 0.7724; AccMul 0.7326 AccBin 0.8454
Step: 6500; 2405.12.s Loss: 0.7727; AccMul 0.7325 AccBin 0.8451
Step: 6600; 2442.20.s Loss: 0.7724; AccMul 0.7325 AccBin 0.8452
Step: 6700; 2477.78.s Loss: 0.7725; AccMul 0.7326 AccBin 0.8452
Step: 6800; 2514.05.s Loss: 0.7728; AccMul 0.7323 AccBin 0.8451
Step: 6900; 2549.58.s Loss: 0.7726; AccMul 0.7323 AccBin 0.8453
Step: 7000; 2585.87.s Loss: 0.7722; AccMul 0.7327 AccBin 0.8453
Step: 7100; 2622.40.s Loss: 0.7726; AccMul 0.7327 AccBin 0.8453
Step: 7200; 2658.48.s Loss: 0.7729; AccMul 0.7325 AccBin 0.8453
Step: 7300; 2694.63.s Loss: 0.7725; AccMul 0.7327 AccBin 0.8453
Step: 7400; 2731.27.s Loss: 0.7728; AccMul 0.7325 AccBin 0.8453
Step: 7500; 2767.65.s Loss: 0.7730; AccMul 0.7323 AccBin 0.8452
Step: 7600; 2803.43.s Loss: 0.7740; AccMul 0.7321 AccBin 0.8452
Step: 7700; 2840.60.s Loss: 0.7741; AccMul 0.7320 AccBin 0.8452
Step: 7800; 2876.08.s Loss: 0.7747; AccMul 0.7319 AccBin 0.8451
Step: 7900; 2911.28.s Loss: 0.7754; AccMul 0.7318 AccBin 0.8450
Step: 8000; 2946.41.s Loss: 0.7760; AccMul 0.7315 AccBin 0.8448
Step: 8100; 2981.54.s Loss: 0.7762; AccMul 0.7313 AccBin 0.8445
Step: 8200; 3016.67.s Loss: 0.7767; AccMul 0.7314 AccBin 0.8444
Step: 8300; 3051.80.s Loss: 0.7764; AccMul 0.7315 AccBin 0.8442
Step: 8400; 3086.88.s Loss: 0.7765; AccMul 0.7314 AccBin 0.8442
Step: 8500; 3122.19.s Loss: 0.7769; AccMul 0.7312 AccBin 0.8441
Step: 8600; 3158.15.s Loss: 0.7770; AccMul 0.7311 AccBin 0.8439
Step: 8700; 3193.61.s Loss: 0.7773; AccMul 0.7310 AccBin 0.8440
Step: 8800; 3229.51.s Loss: 0.7777; AccMul 0.7310 AccBin 0.8442
Step: 8900; 3265.23.s Loss: 0.7776; AccMul 0.7310 AccBin 0.8442
Step: 9000; 3300.51.s Loss: 0.7774; AccMul 0.7312 AccBin 0.8443
Step: 9100; 3336.11.s Loss: 0.7777; AccMul 0.7311 AccBin 0.8443
Step: 9200; 3373.52.s Loss: 0.7769; AccMul 0.7314 AccBin 0.8445
Step: 9300; 3411.41.s Loss: 0.7763; AccMul 0.7316 AccBin 0.8446
Step: 9400; 3447.28.s Loss: 0.7764; AccMul 0.7317 AccBin 0.8445
Step: 9500; 3482.68.s Loss: 0.7760; AccMul 0.7316 AccBin 0.8444
Step: 9600; 3518.48.s Loss: 0.7759; AccMul 0.7316 AccBin 0.8445
Step: 9700; 3554.11.s Loss: 0.7758; AccMul 0.7316 AccBin 0.8446
Step: 9800; 3589.21.s Loss: 0.7758; AccMul 0.7315 AccBin 0.8446
Step: 9900; 3624.36.s Loss: 0.7758; AccMul 0.7313 AccBin 0.8445
Step: 10000; 3659.49.s Loss: 0.7751; AccMul 0.7314 AccBin 0.8445
Step: 10100; 3694.61.s Loss: 0.7757; AccMul 0.7313 AccBin 0.8444
Step: 10200; 3729.73.s Loss: 0.7763; AccMul 0.7311 AccBin 0.8444
Step: 10300; 3764.86.s Loss: 0.7765; AccMul 0.7311 AccBin 0.8443
Step: 10400; 3800.02.s Loss: 0.7762; AccMul 0.7311 AccBin 0.8443
Step: 10500; 3835.19.s Loss: 0.7764; AccMul 0.7311 AccBin 0.8443
Epoch [1/5] Time: 3997.69s; BatchTime:0.37s; Loss: 0.7764; MultAcc: 0.7311; BinAcc: 0.8442; 
 	 	 ValLoss: 1.0983; ValMultAcc: 0.6332; ValBinAcc: 0.7976
Step: 100; 36.62.s Loss: 0.7259; AccMul 0.7340 AccBin 0.8370
Step: 200; 73.24.s Loss: 0.7460; AccMul 0.7390 AccBin 0.8470
Step: 300; 109.88.s Loss: 0.7424; AccMul 0.7403 AccBin 0.8493
Step: 400; 146.53.s Loss: 0.7434; AccMul 0.7420 AccBin 0.8480
Step: 500; 183.18.s Loss: 0.7507; AccMul 0.7394 AccBin 0.8480
Step: 600; 219.85.s Loss: 0.7440; AccMul 0.7407 AccBin 0.8463
Step: 700; 256.52.s Loss: 0.7355; AccMul 0.7414 AccBin 0.8471
Step: 800; 293.21.s Loss: 0.7345; AccMul 0.7425 AccBin 0.8479
Step: 900; 329.91.s Loss: 0.7325; AccMul 0.7439 AccBin 0.8501
Step: 1000; 366.62.s Loss: 0.7298; AccMul 0.7451 AccBin 0.8501
Step: 1100; 403.33.s Loss: 0.7346; AccMul 0.7445 AccBin 0.8497
Step: 1200; 440.06.s Loss: 0.7318; AccMul 0.7464 AccBin 0.8518
Step: 1300; 476.80.s Loss: 0.7303; AccMul 0.7474 AccBin 0.8534
Step: 1400; 513.55.s Loss: 0.7304; AccMul 0.7469 AccBin 0.8528
Step: 1500; 550.29.s Loss: 0.7306; AccMul 0.7467 AccBin 0.8525
Step: 1600; 587.05.s Loss: 0.7305; AccMul 0.7470 AccBin 0.8541
Step: 1700; 623.82.s Loss: 0.7360; AccMul 0.7452 AccBin 0.8534
Step: 1800; 660.59.s Loss: 0.7372; AccMul 0.7452 AccBin 0.8534
Step: 1900; 697.38.s Loss: 0.7352; AccMul 0.7457 AccBin 0.8538
Step: 2000; 734.18.s Loss: 0.7375; AccMul 0.7443 AccBin 0.8531
Step: 2100; 770.99.s Loss: 0.7370; AccMul 0.7452 AccBin 0.8539
Step: 2200; 807.81.s Loss: 0.7398; AccMul 0.7452 AccBin 0.8538
Step: 2300; 844.63.s Loss: 0.7423; AccMul 0.7440 AccBin 0.8530
Step: 2400; 881.21.s Loss: 0.7420; AccMul 0.7441 AccBin 0.8525
Step: 2500; 917.81.s Loss: 0.7441; AccMul 0.7435 AccBin 0.8518
Step: 2600; 954.40.s Loss: 0.7458; AccMul 0.7427 AccBin 0.8512
Step: 2700; 990.99.s Loss: 0.7453; AccMul 0.7424 AccBin 0.8510
Step: 2800; 1027.57.s Loss: 0.7455; AccMul 0.7421 AccBin 0.8507
Step: 2900; 1063.93.s Loss: 0.7464; AccMul 0.7417 AccBin 0.8503
Step: 3000; 1100.27.s Loss: 0.7487; AccMul 0.7411 AccBin 0.8505
Step: 3100; 1136.60.s Loss: 0.7510; AccMul 0.7402 AccBin 0.8498
Step: 3200; 1172.91.s Loss: 0.7504; AccMul 0.7405 AccBin 0.8496
Step: 3300; 1209.20.s Loss: 0.7489; AccMul 0.7411 AccBin 0.8500
Step: 3400; 1245.48.s Loss: 0.7491; AccMul 0.7410 AccBin 0.8496
Step: 3500; 1281.74.s Loss: 0.7508; AccMul 0.7399 AccBin 0.8488
Step: 3600; 1318.00.s Loss: 0.7521; AccMul 0.7397 AccBin 0.8489
Step: 3700; 1354.24.s Loss: 0.7530; AccMul 0.7395 AccBin 0.8489
Step: 3800; 1390.47.s Loss: 0.7529; AccMul 0.7392 AccBin 0.8488
Step: 3900; 1426.67.s Loss: 0.7527; AccMul 0.7386 AccBin 0.8484
Step: 4000; 1462.86.s Loss: 0.7530; AccMul 0.7386 AccBin 0.8488
Step: 4100; 1499.03.s Loss: 0.7528; AccMul 0.7389 AccBin 0.8490
Step: 4200; 1535.18.s Loss: 0.7520; AccMul 0.7394 AccBin 0.8494
Step: 4300; 1571.32.s Loss: 0.7537; AccMul 0.7388 AccBin 0.8492
Step: 4400; 1607.46.s Loss: 0.7538; AccMul 0.7390 AccBin 0.8494
Step: 4500; 1643.58.s Loss: 0.7539; AccMul 0.7388 AccBin 0.8493
Step: 4600; 1679.69.s Loss: 0.7539; AccMul 0.7385 AccBin 0.8491
Step: 4700; 1715.79.s Loss: 0.7541; AccMul 0.7385 AccBin 0.8494
Step: 4800; 1751.94.s Loss: 0.7552; AccMul 0.7381 AccBin 0.8494
Step: 4900; 1788.07.s Loss: 0.7542; AccMul 0.7385 AccBin 0.8498
Step: 5000; 1824.16.s Loss: 0.7546; AccMul 0.7384 AccBin 0.8497
Step: 5100; 1860.22.s Loss: 0.7542; AccMul 0.7384 AccBin 0.8498
Step: 5200; 1896.27.s Loss: 0.7540; AccMul 0.7385 AccBin 0.8498
Step: 5300; 1932.31.s Loss: 0.7556; AccMul 0.7383 AccBin 0.8497
Step: 5400; 1968.34.s Loss: 0.7552; AccMul 0.7384 AccBin 0.8495
Step: 5500; 2004.34.s Loss: 0.7548; AccMul 0.7383 AccBin 0.8493
Step: 5600; 2040.33.s Loss: 0.7545; AccMul 0.7386 AccBin 0.8491
Step: 5700; 2076.31.s Loss: 0.7546; AccMul 0.7385 AccBin 0.8490
Step: 5800; 2112.29.s Loss: 0.7534; AccMul 0.7390 AccBin 0.8493
Step: 5900; 2148.89.s Loss: 0.7531; AccMul 0.7390 AccBin 0.8494
Step: 6000; 2185.62.s Loss: 0.7536; AccMul 0.7388 AccBin 0.8492
Step: 6100; 2222.35.s Loss: 0.7539; AccMul 0.7387 AccBin 0.8490
Step: 6200; 2259.09.s Loss: 0.7541; AccMul 0.7384 AccBin 0.8488
Step: 6300; 2295.84.s Loss: 0.7543; AccMul 0.7384 AccBin 0.8489
Step: 6400; 2332.59.s Loss: 0.7540; AccMul 0.7386 AccBin 0.8490
Step: 6500; 2369.37.s Loss: 0.7539; AccMul 0.7384 AccBin 0.8490
Step: 6600; 2406.16.s Loss: 0.7542; AccMul 0.7383 AccBin 0.8489
Step: 6700; 2442.93.s Loss: 0.7552; AccMul 0.7380 AccBin 0.8486
Step: 6800; 2479.73.s Loss: 0.7557; AccMul 0.7379 AccBin 0.8484
Step: 6900; 2516.54.s Loss: 0.7563; AccMul 0.7376 AccBin 0.8481
Step: 7000; 2553.34.s Loss: 0.7561; AccMul 0.7378 AccBin 0.8483
Step: 7100; 2590.15.s Loss: 0.7554; AccMul 0.7379 AccBin 0.8484
Step: 7200; 2626.98.s Loss: 0.7559; AccMul 0.7379 AccBin 0.8484
Step: 7300; 2663.80.s Loss: 0.7564; AccMul 0.7379 AccBin 0.8484
Step: 7400; 2700.62.s Loss: 0.7560; AccMul 0.7381 AccBin 0.8486
Step: 7500; 2737.44.s Loss: 0.7566; AccMul 0.7378 AccBin 0.8486
Step: 7600; 2774.28.s Loss: 0.7563; AccMul 0.7380 AccBin 0.8487
Step: 7700; 2811.13.s Loss: 0.7564; AccMul 0.7382 AccBin 0.8490
Step: 7800; 2847.98.s Loss: 0.7562; AccMul 0.7383 AccBin 0.8491
Step: 7900; 2884.83.s Loss: 0.7565; AccMul 0.7379 AccBin 0.8488
Step: 8000; 2921.70.s Loss: 0.7556; AccMul 0.7383 AccBin 0.8491
Step: 8100; 2958.56.s Loss: 0.7559; AccMul 0.7380 AccBin 0.8488
Step: 8200; 2995.45.s Loss: 0.7553; AccMul 0.7380 AccBin 0.8488
Step: 8300; 3032.32.s Loss: 0.7549; AccMul 0.7380 AccBin 0.8487
Step: 8400; 3069.21.s Loss: 0.7548; AccMul 0.7381 AccBin 0.8486
Step: 8500; 3106.09.s Loss: 0.7545; AccMul 0.7382 AccBin 0.8486
Step: 8600; 3142.98.s Loss: 0.7546; AccMul 0.7382 AccBin 0.8486
Step: 8700; 3179.87.s Loss: 0.7541; AccMul 0.7384 AccBin 0.8487
Step: 8800; 3216.75.s Loss: 0.7534; AccMul 0.7387 AccBin 0.8488
Step: 8900; 3253.74.s Loss: 0.7536; AccMul 0.7387 AccBin 0.8488
Step: 9000; 3290.63.s Loss: 0.7540; AccMul 0.7389 AccBin 0.8489
Step: 9100; 3327.54.s Loss: 0.7541; AccMul 0.7389 AccBin 0.8488
Step: 9200; 3364.45.s Loss: 0.7537; AccMul 0.7391 AccBin 0.8489
Step: 9300; 3401.35.s Loss: 0.7535; AccMul 0.7394 AccBin 0.8492
Step: 9400; 3438.26.s Loss: 0.7533; AccMul 0.7392 AccBin 0.8491
Step: 9500; 3475.19.s Loss: 0.7546; AccMul 0.7390 AccBin 0.8491
Step: 9600; 3512.12.s Loss: 0.7545; AccMul 0.7390 AccBin 0.8491
Step: 9700; 3549.07.s Loss: 0.7552; AccMul 0.7387 AccBin 0.8490
Step: 9800; 3586.07.s Loss: 0.7556; AccMul 0.7386 AccBin 0.8490
Step: 9900; 3623.00.s Loss: 0.7553; AccMul 0.7388 AccBin 0.8491
Step: 10000; 3659.96.s Loss: 0.7551; AccMul 0.7388 AccBin 0.8491
Step: 10100; 3696.90.s Loss: 0.7553; AccMul 0.7387 AccBin 0.8490
Step: 10200; 3733.83.s Loss: 0.7556; AccMul 0.7387 AccBin 0.8489
Step: 10300; 3770.78.s Loss: 0.7555; AccMul 0.7388 AccBin 0.8488
Step: 10400; 3807.73.s Loss: 0.7559; AccMul 0.7387 AccBin 0.8489
Step: 10500; 3844.69.s Loss: 0.7560; AccMul 0.7388 AccBin 0.8490
Epoch [2/5] Time: 4025.62s; BatchTime:0.37s; Loss: 0.7559; MultAcc: 0.7387; BinAcc: 0.8490; 
 	 	 ValLoss: 1.1560; ValMultAcc: 0.6922; ValBinAcc: 0.8136
Step: 100; 36.66.s Loss: 0.7135; AccMul 0.7320 AccBin 0.8400
Step: 200; 73.33.s Loss: 0.7456; AccMul 0.7355 AccBin 0.8450
Step: 300; 110.01.s Loss: 0.7360; AccMul 0.7433 AccBin 0.8513
Step: 400; 146.69.s Loss: 0.7430; AccMul 0.7450 AccBin 0.8555
Step: 500; 183.38.s Loss: 0.7454; AccMul 0.7420 AccBin 0.8518
Step: 600; 220.07.s Loss: 0.7472; AccMul 0.7438 AccBin 0.8495
Step: 700; 256.77.s Loss: 0.7419; AccMul 0.7439 AccBin 0.8510
Step: 800; 293.48.s Loss: 0.7327; AccMul 0.7474 AccBin 0.8531
Step: 900; 330.19.s Loss: 0.7261; AccMul 0.7500 AccBin 0.8551
Step: 1000; 366.90.s Loss: 0.7254; AccMul 0.7491 AccBin 0.8547
Step: 1100; 403.62.s Loss: 0.7231; AccMul 0.7502 AccBin 0.8562
Step: 1200; 440.35.s Loss: 0.7249; AccMul 0.7489 AccBin 0.8544
Step: 1300; 477.08.s Loss: 0.7272; AccMul 0.7482 AccBin 0.8532
Step: 1400; 513.82.s Loss: 0.7266; AccMul 0.7484 AccBin 0.8527
Step: 1500; 550.56.s Loss: 0.7248; AccMul 0.7477 AccBin 0.8527
Step: 1600; 587.31.s Loss: 0.7267; AccMul 0.7459 AccBin 0.8513
Step: 1700; 624.06.s Loss: 0.7267; AccMul 0.7465 AccBin 0.8514
Step: 1800; 660.82.s Loss: 0.7283; AccMul 0.7466 AccBin 0.8514
Step: 1900; 697.58.s Loss: 0.7273; AccMul 0.7470 AccBin 0.8514
Step: 2000; 734.35.s Loss: 0.7250; AccMul 0.7472 AccBin 0.8519
Step: 2100; 771.12.s Loss: 0.7257; AccMul 0.7468 AccBin 0.8513
Step: 2200; 807.90.s Loss: 0.7223; AccMul 0.7481 AccBin 0.8523
Step: 2300; 844.68.s Loss: 0.7241; AccMul 0.7478 AccBin 0.8522
Step: 2400; 881.46.s Loss: 0.7234; AccMul 0.7478 AccBin 0.8525
Step: 2500; 918.25.s Loss: 0.7220; AccMul 0.7484 AccBin 0.8527
Step: 2600; 955.05.s Loss: 0.7229; AccMul 0.7479 AccBin 0.8523
Step: 2700; 991.85.s Loss: 0.7253; AccMul 0.7471 AccBin 0.8524
Step: 2800; 1028.65.s Loss: 0.7262; AccMul 0.7469 AccBin 0.8522
Step: 2900; 1065.46.s Loss: 0.7239; AccMul 0.7476 AccBin 0.8525
Step: 3000; 1102.28.s Loss: 0.7253; AccMul 0.7471 AccBin 0.8526
Step: 3100; 1139.10.s Loss: 0.7255; AccMul 0.7475 AccBin 0.8533
Step: 3200; 1175.92.s Loss: 0.7265; AccMul 0.7474 AccBin 0.8532
Step: 3300; 1212.75.s Loss: 0.7266; AccMul 0.7472 AccBin 0.8534
Step: 3400; 1249.58.s Loss: 0.7268; AccMul 0.7472 AccBin 0.8534
Step: 3500; 1286.41.s Loss: 0.7267; AccMul 0.7473 AccBin 0.8534
Step: 3600; 1323.25.s Loss: 0.7246; AccMul 0.7487 AccBin 0.8542
Step: 3700; 1360.09.s Loss: 0.7262; AccMul 0.7481 AccBin 0.8541
Step: 3800; 1396.93.s Loss: 0.7262; AccMul 0.7478 AccBin 0.8539
Step: 3900; 1433.77.s Loss: 0.7283; AccMul 0.7474 AccBin 0.8539
Step: 4000; 1470.62.s Loss: 0.7293; AccMul 0.7471 AccBin 0.8538
Step: 4100; 1507.48.s Loss: 0.7288; AccMul 0.7474 AccBin 0.8540
Step: 4200; 1544.34.s Loss: 0.7280; AccMul 0.7476 AccBin 0.8542
Step: 4300; 1581.20.s Loss: 0.7280; AccMul 0.7475 AccBin 0.8546
Step: 4400; 1618.07.s Loss: 0.7291; AccMul 0.7472 AccBin 0.8542
Step: 4500; 1654.94.s Loss: 0.7301; AccMul 0.7470 AccBin 0.8543
Step: 4600; 1691.82.s Loss: 0.7300; AccMul 0.7469 AccBin 0.8542
Step: 4700; 1728.69.s Loss: 0.7304; AccMul 0.7466 AccBin 0.8542
Step: 4800; 1765.58.s Loss: 0.7307; AccMul 0.7468 AccBin 0.8544
Step: 4900; 1802.45.s Loss: 0.7305; AccMul 0.7467 AccBin 0.8541
Step: 5000; 1839.34.s Loss: 0.7301; AccMul 0.7469 AccBin 0.8542
Step: 5100; 1876.24.s Loss: 0.7303; AccMul 0.7467 AccBin 0.8543
Step: 5200; 1913.13.s Loss: 0.7299; AccMul 0.7470 AccBin 0.8544
Step: 5300; 1950.13.s Loss: 0.7308; AccMul 0.7469 AccBin 0.8542
Step: 5400; 1987.02.s Loss: 0.7309; AccMul 0.7467 AccBin 0.8541
Step: 5500; 2023.92.s Loss: 0.7306; AccMul 0.7466 AccBin 0.8539
Step: 5600; 2060.84.s Loss: 0.7310; AccMul 0.7463 AccBin 0.8536
Step: 5700; 2097.74.s Loss: 0.7306; AccMul 0.7465 AccBin 0.8536
Step: 5800; 2134.65.s Loss: 0.7314; AccMul 0.7461 AccBin 0.8531
Step: 5900; 2171.56.s Loss: 0.7314; AccMul 0.7460 AccBin 0.8529
Step: 6000; 2208.47.s Loss: 0.7315; AccMul 0.7461 AccBin 0.8532
Step: 6100; 2245.39.s Loss: 0.7315; AccMul 0.7459 AccBin 0.8532
Step: 6200; 2282.32.s Loss: 0.7324; AccMul 0.7455 AccBin 0.8528
Step: 6300; 2319.24.s Loss: 0.7319; AccMul 0.7457 AccBin 0.8529
Step: 6400; 2356.17.s Loss: 0.7324; AccMul 0.7456 AccBin 0.8529
Step: 6500; 2393.09.s Loss: 0.7322; AccMul 0.7455 AccBin 0.8529
Step: 6600; 2430.03.s Loss: 0.7322; AccMul 0.7455 AccBin 0.8528
Step: 6700; 2466.96.s Loss: 0.7327; AccMul 0.7454 AccBin 0.8527
Step: 6800; 2503.89.s Loss: 0.7333; AccMul 0.7452 AccBin 0.8524
Step: 6900; 2540.83.s Loss: 0.7337; AccMul 0.7452 AccBin 0.8525
Step: 7000; 2577.77.s Loss: 0.7335; AccMul 0.7452 AccBin 0.8525
Step: 7100; 2614.71.s Loss: 0.7330; AccMul 0.7456 AccBin 0.8528
Step: 7200; 2651.66.s Loss: 0.7325; AccMul 0.7459 AccBin 0.8528
Step: 7300; 2688.61.s Loss: 0.7331; AccMul 0.7457 AccBin 0.8525
Step: 7400; 2725.55.s Loss: 0.7343; AccMul 0.7454 AccBin 0.8524
Step: 7500; 2762.51.s Loss: 0.7348; AccMul 0.7451 AccBin 0.8523
Step: 7600; 2799.46.s Loss: 0.7352; AccMul 0.7451 AccBin 0.8524
Step: 7700; 2836.42.s Loss: 0.7354; AccMul 0.7450 AccBin 0.8523
Step: 7800; 2873.38.s Loss: 0.7350; AccMul 0.7452 AccBin 0.8526
Step: 7900; 2910.34.s Loss: 0.7340; AccMul 0.7455 AccBin 0.8526
Step: 8000; 2947.31.s Loss: 0.7344; AccMul 0.7454 AccBin 0.8524
Step: 8100; 2984.27.s Loss: 0.7345; AccMul 0.7454 AccBin 0.8524
Step: 8200; 3021.24.s Loss: 0.7349; AccMul 0.7452 AccBin 0.8521
Step: 8300; 3058.20.s Loss: 0.7353; AccMul 0.7451 AccBin 0.8521
Step: 8400; 3095.17.s Loss: 0.7348; AccMul 0.7452 AccBin 0.8521
Step: 8500; 3132.16.s Loss: 0.7347; AccMul 0.7455 AccBin 0.8524
Step: 8600; 3169.15.s Loss: 0.7341; AccMul 0.7454 AccBin 0.8523
Step: 8700; 3206.12.s Loss: 0.7342; AccMul 0.7453 AccBin 0.8520
Step: 8800; 3243.13.s Loss: 0.7341; AccMul 0.7454 AccBin 0.8519
Step: 8900; 3280.11.s Loss: 0.7341; AccMul 0.7458 AccBin 0.8522
Step: 9000; 3317.10.s Loss: 0.7343; AccMul 0.7456 AccBin 0.8520
Step: 9100; 3354.09.s Loss: 0.7335; AccMul 0.7457 AccBin 0.8520
Step: 9200; 3391.08.s Loss: 0.7332; AccMul 0.7455 AccBin 0.8520
Step: 9300; 3428.07.s Loss: 0.7330; AccMul 0.7455 AccBin 0.8520
Step: 9400; 3465.06.s Loss: 0.7331; AccMul 0.7457 AccBin 0.8522
Step: 9500; 3502.07.s Loss: 0.7331; AccMul 0.7456 AccBin 0.8522
Step: 9600; 3539.06.s Loss: 0.7327; AccMul 0.7457 AccBin 0.8521
Step: 9700; 3576.06.s Loss: 0.7330; AccMul 0.7456 AccBin 0.8521
Step: 9800; 3613.06.s Loss: 0.7331; AccMul 0.7457 AccBin 0.8520
Step: 9900; 3650.07.s Loss: 0.7334; AccMul 0.7456 AccBin 0.8519
Step: 10000; 3687.07.s Loss: 0.7332; AccMul 0.7457 AccBin 0.8520
Step: 10100; 3724.07.s Loss: 0.7338; AccMul 0.7456 AccBin 0.8519
Step: 10200; 3761.08.s Loss: 0.7341; AccMul 0.7454 AccBin 0.8518
Step: 10300; 3798.08.s Loss: 0.7340; AccMul 0.7454 AccBin 0.8517
Step: 10400; 3835.09.s Loss: 0.7343; AccMul 0.7453 AccBin 0.8516
Step: 10500; 3872.11.s Loss: 0.7344; AccMul 0.7452 AccBin 0.8515
Epoch [3/5] Time: 4097.38s; BatchTime:0.37s; Loss: 0.7345; MultAcc: 0.7451; BinAcc: 0.8514; 
 	 	 ValLoss: 0.9320; ValMultAcc: 0.7012; ValBinAcc: 0.8270
Step: 100; 36.91.s Loss: 0.7478; AccMul 0.7440 AccBin 0.8520
Step: 200; 73.82.s Loss: 0.7348; AccMul 0.7440 AccBin 0.8490
Step: 300; 110.73.s Loss: 0.7249; AccMul 0.7480 AccBin 0.8530
Step: 400; 147.65.s Loss: 0.7090; AccMul 0.7555 AccBin 0.8543
Step: 500; 184.56.s Loss: 0.7086; AccMul 0.7536 AccBin 0.8522
Step: 600; 221.48.s Loss: 0.7163; AccMul 0.7495 AccBin 0.8485
Step: 700; 258.40.s Loss: 0.7201; AccMul 0.7471 AccBin 0.8504
Step: 800; 295.33.s Loss: 0.7204; AccMul 0.7468 AccBin 0.8514
Step: 900; 332.25.s Loss: 0.7196; AccMul 0.7476 AccBin 0.8506
Step: 1000; 369.18.s Loss: 0.7166; AccMul 0.7479 AccBin 0.8512
Step: 1100; 406.11.s Loss: 0.7155; AccMul 0.7481 AccBin 0.8504
Step: 1200; 443.05.s Loss: 0.7177; AccMul 0.7474 AccBin 0.8508
Step: 1300; 479.98.s Loss: 0.7198; AccMul 0.7461 AccBin 0.8500
Step: 1400; 516.92.s Loss: 0.7195; AccMul 0.7459 AccBin 0.8495
Step: 1500; 553.86.s Loss: 0.7168; AccMul 0.7475 AccBin 0.8507
Step: 1600; 590.80.s Loss: 0.7191; AccMul 0.7467 AccBin 0.8509
Step: 1700; 627.75.s Loss: 0.7160; AccMul 0.7474 AccBin 0.8515
Step: 1800; 664.69.s Loss: 0.7155; AccMul 0.7481 AccBin 0.8518
Step: 1900; 701.64.s Loss: 0.7136; AccMul 0.7485 AccBin 0.8519
Step: 2000; 738.59.s Loss: 0.7141; AccMul 0.7486 AccBin 0.8518
Step: 2100; 775.54.s Loss: 0.7159; AccMul 0.7482 AccBin 0.8519
Step: 2200; 812.49.s Loss: 0.7167; AccMul 0.7489 AccBin 0.8522
Step: 2300; 849.45.s Loss: 0.7152; AccMul 0.7500 AccBin 0.8530
Step: 2400; 886.41.s Loss: 0.7173; AccMul 0.7490 AccBin 0.8518
Step: 2500; 923.38.s Loss: 0.7158; AccMul 0.7498 AccBin 0.8518
Step: 2600; 960.34.s Loss: 0.7142; AccMul 0.7503 AccBin 0.8520
Step: 2700; 997.31.s Loss: 0.7141; AccMul 0.7506 AccBin 0.8529
Step: 2800; 1034.28.s Loss: 0.7125; AccMul 0.7508 AccBin 0.8531
Step: 2900; 1071.25.s Loss: 0.7116; AccMul 0.7511 AccBin 0.8534
Step: 3000; 1108.22.s Loss: 0.7124; AccMul 0.7509 AccBin 0.8534
Step: 3100; 1145.19.s Loss: 0.7134; AccMul 0.7506 AccBin 0.8532
Step: 3200; 1182.17.s Loss: 0.7145; AccMul 0.7497 AccBin 0.8530
Step: 3300; 1219.14.s Loss: 0.7127; AccMul 0.7503 AccBin 0.8532
Step: 3400; 1256.12.s Loss: 0.7128; AccMul 0.7497 AccBin 0.8530
Step: 3500; 1293.10.s Loss: 0.7113; AccMul 0.7502 AccBin 0.8530
Step: 3600; 1330.08.s Loss: 0.7117; AccMul 0.7498 AccBin 0.8531
Step: 3700; 1367.07.s Loss: 0.7133; AccMul 0.7499 AccBin 0.8536
Step: 3800; 1404.06.s Loss: 0.7144; AccMul 0.7493 AccBin 0.8533
Step: 3900; 1441.04.s Loss: 0.7139; AccMul 0.7496 AccBin 0.8535
Step: 4000; 1478.02.s Loss: 0.7144; AccMul 0.7495 AccBin 0.8534
Step: 4100; 1515.01.s Loss: 0.7153; AccMul 0.7495 AccBin 0.8534
Step: 4200; 1552.01.s Loss: 0.7164; AccMul 0.7498 AccBin 0.8537
Step: 4300; 1589.01.s Loss: 0.7162; AccMul 0.7498 AccBin 0.8539
Step: 4400; 1626.00.s Loss: 0.7146; AccMul 0.7503 AccBin 0.8540
Step: 4500; 1662.99.s Loss: 0.7135; AccMul 0.7510 AccBin 0.8545
Step: 4600; 1699.99.s Loss: 0.7147; AccMul 0.7507 AccBin 0.8538
Step: 4700; 1736.99.s Loss: 0.7148; AccMul 0.7505 AccBin 0.8540
Step: 4800; 1774.02.s Loss: 0.7148; AccMul 0.7504 AccBin 0.8536
Step: 4900; 1810.99.s Loss: 0.7135; AccMul 0.7507 AccBin 0.8537
Step: 5000; 1847.99.s Loss: 0.7136; AccMul 0.7508 AccBin 0.8534
Step: 5100; 1884.99.s Loss: 0.7145; AccMul 0.7506 AccBin 0.8534
Step: 5200; 1922.00.s Loss: 0.7147; AccMul 0.7505 AccBin 0.8533
Step: 5300; 1959.00.s Loss: 0.7140; AccMul 0.7503 AccBin 0.8530
Step: 5400; 1996.01.s Loss: 0.7144; AccMul 0.7503 AccBin 0.8532
Step: 5500; 2033.02.s Loss: 0.7144; AccMul 0.7506 AccBin 0.8533
Step: 5600; 2070.03.s Loss: 0.7143; AccMul 0.7507 AccBin 0.8534
Step: 5700; 2107.04.s Loss: 0.7143; AccMul 0.7508 AccBin 0.8535
Step: 5800; 2144.06.s Loss: 0.7149; AccMul 0.7508 AccBin 0.8533
Step: 5900; 2181.09.s Loss: 0.7146; AccMul 0.7505 AccBin 0.8531
Step: 6000; 2218.11.s Loss: 0.7152; AccMul 0.7500 AccBin 0.8526
Step: 6100; 2255.27.s Loss: 0.7154; AccMul 0.7500 AccBin 0.8526
Step: 6200; 2292.42.s Loss: 0.7152; AccMul 0.7502 AccBin 0.8528
Step: 6300; 2329.45.s Loss: 0.7149; AccMul 0.7503 AccBin 0.8527
Step: 6400; 2366.47.s Loss: 0.7151; AccMul 0.7503 AccBin 0.8526
Step: 6500; 2403.50.s Loss: 0.7148; AccMul 0.7505 AccBin 0.8528
Step: 6600; 2440.53.s Loss: 0.7148; AccMul 0.7505 AccBin 0.8527
Step: 6700; 2477.57.s Loss: 0.7152; AccMul 0.7501 AccBin 0.8525
Step: 6800; 2514.60.s Loss: 0.7145; AccMul 0.7500 AccBin 0.8524
Step: 6900; 2551.63.s Loss: 0.7149; AccMul 0.7498 AccBin 0.8524
Step: 7000; 2588.66.s Loss: 0.7150; AccMul 0.7499 AccBin 0.8526
Step: 7100; 2625.70.s Loss: 0.7150; AccMul 0.7500 AccBin 0.8526
Step: 7200; 2662.74.s Loss: 0.7154; AccMul 0.7501 AccBin 0.8529
Step: 7300; 2699.78.s Loss: 0.7168; AccMul 0.7497 AccBin 0.8527
Step: 7400; 2736.82.s Loss: 0.7176; AccMul 0.7497 AccBin 0.8527
Step: 7500; 2773.86.s Loss: 0.7180; AccMul 0.7497 AccBin 0.8527
Step: 7600; 2810.90.s Loss: 0.7182; AccMul 0.7498 AccBin 0.8526
Step: 7700; 2848.03.s Loss: 0.7183; AccMul 0.7501 AccBin 0.8529
Step: 7800; 2884.94.s Loss: 0.7187; AccMul 0.7501 AccBin 0.8529
Step: 7900; 2921.80.s Loss: 0.7182; AccMul 0.7502 AccBin 0.8532
Step: 8000; 2958.44.s Loss: 0.7182; AccMul 0.7502 AccBin 0.8533
Step: 8100; 2995.09.s Loss: 0.7185; AccMul 0.7502 AccBin 0.8533
Step: 8200; 3031.72.s Loss: 0.7182; AccMul 0.7504 AccBin 0.8534
Step: 8300; 3068.32.s Loss: 0.7182; AccMul 0.7504 AccBin 0.8533
Step: 8400; 3104.90.s Loss: 0.7180; AccMul 0.7505 AccBin 0.8533
Step: 8500; 3141.48.s Loss: 0.7183; AccMul 0.7504 AccBin 0.8534
Step: 8600; 3178.20.s Loss: 0.7194; AccMul 0.7502 AccBin 0.8532
Step: 8700; 3215.41.s Loss: 0.7191; AccMul 0.7503 AccBin 0.8533
Step: 8800; 3251.97.s Loss: 0.7189; AccMul 0.7504 AccBin 0.8533
Step: 8900; 3288.50.s Loss: 0.7185; AccMul 0.7505 AccBin 0.8534
Step: 9000; 3325.02.s Loss: 0.7185; AccMul 0.7505 AccBin 0.8534
Step: 9100; 3361.55.s Loss: 0.7187; AccMul 0.7505 AccBin 0.8534
Step: 9200; 3398.09.s Loss: 0.7193; AccMul 0.7505 AccBin 0.8535
Step: 9300; 3434.62.s Loss: 0.7191; AccMul 0.7504 AccBin 0.8534
Step: 9400; 3471.28.s Loss: 0.7187; AccMul 0.7505 AccBin 0.8535
Step: 9500; 3507.83.s Loss: 0.7193; AccMul 0.7504 AccBin 0.8535
Step: 9600; 3544.38.s Loss: 0.7200; AccMul 0.7502 AccBin 0.8532
Step: 9700; 3581.05.s Loss: 0.7197; AccMul 0.7502 AccBin 0.8532
Step: 9800; 3617.63.s Loss: 0.7199; AccMul 0.7503 AccBin 0.8535
Step: 9900; 3654.15.s Loss: 0.7194; AccMul 0.7504 AccBin 0.8535
Step: 10000; 3690.69.s Loss: 0.7189; AccMul 0.7504 AccBin 0.8535
Step: 10100; 3727.21.s Loss: 0.7190; AccMul 0.7504 AccBin 0.8535
Step: 10200; 3763.92.s Loss: 0.7190; AccMul 0.7505 AccBin 0.8535
Step: 10300; 3800.58.s Loss: 0.7192; AccMul 0.7505 AccBin 0.8535
Step: 10400; 3837.34.s Loss: 0.7184; AccMul 0.7507 AccBin 0.8537
Step: 10500; 3874.20.s Loss: 0.7188; AccMul 0.7506 AccBin 0.8537
Epoch [4/5] Time: 4044.39s; BatchTime:0.37s; Loss: 0.7193; MultAcc: 0.7504; BinAcc: 0.8536; 
 	 	 ValLoss: 1.2006; ValMultAcc: 0.6544; ValBinAcc: 0.8074
Step: 100; 36.92.s Loss: 0.6681; AccMul 0.7520 AccBin 0.8600
Step: 200; 73.83.s Loss: 0.6473; AccMul 0.7635 AccBin 0.8675
Step: 300; 110.74.s Loss: 0.6646; AccMul 0.7587 AccBin 0.8620
Step: 400; 147.63.s Loss: 0.6663; AccMul 0.7608 AccBin 0.8638
Step: 500; 184.53.s Loss: 0.6672; AccMul 0.7608 AccBin 0.8622
Step: 600; 221.42.s Loss: 0.6753; AccMul 0.7575 AccBin 0.8600
Step: 700; 258.30.s Loss: 0.6854; AccMul 0.7544 AccBin 0.8593
Step: 800; 295.18.s Loss: 0.6838; AccMul 0.7579 AccBin 0.8589
Step: 900; 332.04.s Loss: 0.6834; AccMul 0.7578 AccBin 0.8611
Step: 1000; 368.91.s Loss: 0.6825; AccMul 0.7563 AccBin 0.8598
Step: 1100; 405.77.s Loss: 0.6800; AccMul 0.7569 AccBin 0.8590
Step: 1200; 442.62.s Loss: 0.6760; AccMul 0.7571 AccBin 0.8574
Step: 1300; 479.46.s Loss: 0.6803; AccMul 0.7560 AccBin 0.8567
Step: 1400; 516.31.s Loss: 0.6788; AccMul 0.7561 AccBin 0.8568
Step: 1500; 553.18.s Loss: 0.6814; AccMul 0.7551 AccBin 0.8551
Step: 1600; 590.03.s Loss: 0.6846; AccMul 0.7547 AccBin 0.8542
Step: 1700; 626.88.s Loss: 0.6861; AccMul 0.7549 AccBin 0.8539
Step: 1800; 663.72.s Loss: 0.6858; AccMul 0.7544 AccBin 0.8538
Step: 1900; 700.54.s Loss: 0.6840; AccMul 0.7556 AccBin 0.8546
Step: 2000; 737.35.s Loss: 0.6871; AccMul 0.7551 AccBin 0.8548
Step: 2100; 774.16.s Loss: 0.6842; AccMul 0.7564 AccBin 0.8550
Step: 2200; 810.96.s Loss: 0.6831; AccMul 0.7565 AccBin 0.8551
Step: 2300; 847.76.s Loss: 0.6833; AccMul 0.7561 AccBin 0.8540
Step: 2400; 884.55.s Loss: 0.6843; AccMul 0.7562 AccBin 0.8537
Step: 2500; 921.33.s Loss: 0.6836; AccMul 0.7568 AccBin 0.8540
Step: 2600; 958.12.s Loss: 0.6841; AccMul 0.7570 AccBin 0.8546
Step: 2700; 994.90.s Loss: 0.6868; AccMul 0.7570 AccBin 0.8549
Step: 2800; 1031.68.s Loss: 0.6887; AccMul 0.7562 AccBin 0.8547
Step: 2900; 1068.44.s Loss: 0.6902; AccMul 0.7558 AccBin 0.8541
Step: 3000; 1105.22.s Loss: 0.6910; AccMul 0.7558 AccBin 0.8543
Step: 3100; 1141.99.s Loss: 0.6916; AccMul 0.7554 AccBin 0.8542
Step: 3200; 1178.76.s Loss: 0.6908; AccMul 0.7553 AccBin 0.8544
Step: 3300; 1215.62.s Loss: 0.6913; AccMul 0.7556 AccBin 0.8548
Step: 3400; 1252.61.s Loss: 0.6903; AccMul 0.7561 AccBin 0.8552
Step: 3500; 1289.63.s Loss: 0.6922; AccMul 0.7555 AccBin 0.8553
Step: 3600; 1326.66.s Loss: 0.6919; AccMul 0.7553 AccBin 0.8551
Step: 3700; 1363.61.s Loss: 0.6921; AccMul 0.7547 AccBin 0.8549
Step: 3800; 1400.64.s Loss: 0.6925; AccMul 0.7547 AccBin 0.8547
Step: 3900; 1437.61.s Loss: 0.6936; AccMul 0.7542 AccBin 0.8545
Step: 4000; 1474.58.s Loss: 0.6927; AccMul 0.7547 AccBin 0.8549
Step: 4100; 1511.50.s Loss: 0.6932; AccMul 0.7544 AccBin 0.8550
Step: 4200; 1548.43.s Loss: 0.6930; AccMul 0.7540 AccBin 0.8549
Step: 4300; 1585.47.s Loss: 0.6928; AccMul 0.7544 AccBin 0.8552
Step: 4400; 1622.67.s Loss: 0.6920; AccMul 0.7545 AccBin 0.8556
Step: 4500; 1659.79.s Loss: 0.6937; AccMul 0.7539 AccBin 0.8552
Step: 4600; 1696.87.s Loss: 0.6943; AccMul 0.7539 AccBin 0.8552
Step: 4700; 1733.99.s Loss: 0.6941; AccMul 0.7541 AccBin 0.8556
Step: 4800; 1771.04.s Loss: 0.6950; AccMul 0.7538 AccBin 0.8555
Step: 4900; 1808.01.s Loss: 0.6949; AccMul 0.7543 AccBin 0.8556
Step: 5000; 1844.90.s Loss: 0.6948; AccMul 0.7539 AccBin 0.8554
Step: 5100; 1881.83.s Loss: 0.6955; AccMul 0.7538 AccBin 0.8555
Step: 5200; 1918.80.s Loss: 0.6954; AccMul 0.7537 AccBin 0.8559
Step: 5300; 1955.82.s Loss: 0.6950; AccMul 0.7539 AccBin 0.8562
Step: 5400; 1992.76.s Loss: 0.6961; AccMul 0.7536 AccBin 0.8558
Step: 5500; 2029.71.s Loss: 0.6967; AccMul 0.7534 AccBin 0.8556
Step: 5600; 2066.65.s Loss: 0.6964; AccMul 0.7535 AccBin 0.8558
Step: 5700; 2103.60.s Loss: 0.6965; AccMul 0.7537 AccBin 0.8560
Step: 5800; 2140.55.s Loss: 0.6972; AccMul 0.7533 AccBin 0.8558
Step: 5900; 2177.50.s Loss: 0.6970; AccMul 0.7534 AccBin 0.8558
Step: 6000; 2214.46.s Loss: 0.6967; AccMul 0.7534 AccBin 0.8558
Step: 6100; 2251.42.s Loss: 0.6967; AccMul 0.7531 AccBin 0.8555
Step: 6200; 2288.37.s Loss: 0.6980; AccMul 0.7530 AccBin 0.8558
Step: 6300; 2325.33.s Loss: 0.6974; AccMul 0.7530 AccBin 0.8559
Step: 6400; 2362.29.s Loss: 0.6981; AccMul 0.7529 AccBin 0.8557
Step: 6500; 2399.25.s Loss: 0.6971; AccMul 0.7532 AccBin 0.8560
Step: 6600; 2436.21.s Loss: 0.6962; AccMul 0.7537 AccBin 0.8560
Step: 6700; 2473.17.s Loss: 0.6958; AccMul 0.7538 AccBin 0.8561
Step: 6800; 2510.13.s Loss: 0.6961; AccMul 0.7536 AccBin 0.8561
Step: 6900; 2547.09.s Loss: 0.6959; AccMul 0.7536 AccBin 0.8562
Step: 7000; 2584.06.s Loss: 0.6951; AccMul 0.7541 AccBin 0.8564
Step: 7100; 2621.03.s Loss: 0.6947; AccMul 0.7542 AccBin 0.8562
Step: 7200; 2657.99.s Loss: 0.6951; AccMul 0.7542 AccBin 0.8562
Step: 7300; 2694.96.s Loss: 0.6962; AccMul 0.7538 AccBin 0.8559
Step: 7400; 2731.93.s Loss: 0.6966; AccMul 0.7539 AccBin 0.8561
Step: 7500; 2768.90.s Loss: 0.6966; AccMul 0.7539 AccBin 0.8562
Step: 7600; 2805.87.s Loss: 0.6971; AccMul 0.7537 AccBin 0.8559
Step: 7700; 2842.84.s Loss: 0.6976; AccMul 0.7535 AccBin 0.8559
Step: 7800; 2879.82.s Loss: 0.6978; AccMul 0.7536 AccBin 0.8559
Step: 7900; 2916.80.s Loss: 0.6984; AccMul 0.7533 AccBin 0.8558
Step: 8000; 2953.78.s Loss: 0.6984; AccMul 0.7536 AccBin 0.8558
Step: 8100; 2990.76.s Loss: 0.6982; AccMul 0.7536 AccBin 0.8560
Step: 8200; 3027.74.s Loss: 0.6983; AccMul 0.7540 AccBin 0.8564
Step: 8300; 3064.71.s Loss: 0.6979; AccMul 0.7541 AccBin 0.8564
Step: 8400; 3101.69.s Loss: 0.6980; AccMul 0.7540 AccBin 0.8564
Step: 8500; 3138.68.s Loss: 0.6984; AccMul 0.7539 AccBin 0.8565
Step: 8600; 3175.67.s Loss: 0.6983; AccMul 0.7542 AccBin 0.8567
Step: 8700; 3212.66.s Loss: 0.6983; AccMul 0.7543 AccBin 0.8569
Step: 8800; 3249.65.s Loss: 0.6984; AccMul 0.7542 AccBin 0.8568
Step: 8900; 3286.64.s Loss: 0.6987; AccMul 0.7541 AccBin 0.8567
Step: 9000; 3323.63.s Loss: 0.6992; AccMul 0.7541 AccBin 0.8566
Step: 9100; 3360.62.s Loss: 0.6996; AccMul 0.7539 AccBin 0.8564
Step: 9200; 3397.61.s Loss: 0.6997; AccMul 0.7540 AccBin 0.8564
Step: 9300; 3434.60.s Loss: 0.6996; AccMul 0.7540 AccBin 0.8565
Step: 9400; 3471.59.s Loss: 0.7001; AccMul 0.7537 AccBin 0.8563
Step: 9500; 3508.58.s Loss: 0.7000; AccMul 0.7538 AccBin 0.8564
Step: 9600; 3545.58.s Loss: 0.7000; AccMul 0.7539 AccBin 0.8563
Step: 9700; 3582.57.s Loss: 0.6999; AccMul 0.7538 AccBin 0.8563
Step: 9800; 3619.57.s Loss: 0.6998; AccMul 0.7538 AccBin 0.8561
Step: 9900; 3656.57.s Loss: 0.6991; AccMul 0.7540 AccBin 0.8562
Step: 10000; 3693.57.s Loss: 0.6995; AccMul 0.7537 AccBin 0.8560
Step: 10100; 3730.57.s Loss: 0.6996; AccMul 0.7539 AccBin 0.8561
Step: 10200; 3767.57.s Loss: 0.6995; AccMul 0.7540 AccBin 0.8562
Step: 10300; 3804.58.s Loss: 0.6997; AccMul 0.7539 AccBin 0.8560
Step: 10400; 3841.58.s Loss: 0.6992; AccMul 0.7541 AccBin 0.8561
Step: 10500; 3878.59.s Loss: 0.6999; AccMul 0.7537 AccBin 0.8558
Epoch [5/5] Time: 4067.84s; BatchTime:0.37s; Loss: 0.6996; MultAcc: 0.7536; BinAcc: 0.8558; 
 	 	 ValLoss: 1.6622; ValMultAcc: 0.6744; ValBinAcc: 0.7954

TEST Loss: 0.9472; AccMult: 0.6993; AccBin: 0.8269

ROC AUC SCORE
	 good: 0.8690
	 celeb: 0.8764
	 casino: 0.8675
	 guns: 0.8765
	 illegal: 0.8484
	 narco: 0.8128
	 porno: 0.8982
	 yellow: 0.8144
Peak memory usage by Pytorch tensors: 2547.74 Mb
