Logging Timestamp 2020-03-19 16.09.54

Namespace(batch=50, batch_count=1, checkpoint=-1, data_dir='data', epochs=8, memory_usage=True, model='resnet50', no_scheduler=True, num_workers=4, opt_lr=0.001, out='models/model_resnet50_2020-03-19 16.09.54.pth', plot_hist=True, save_best=True, stop_accuracy=0.4, teacher_file='')
Model require grad = False
device cuda:0
