Logging Timestamp 2020-05-03 19.22.26

Namespace(batch=10, batch_count=1, checkpoint=-1, data_dir='data_new', epochs=1, memory_usage=True, model='inception_v3', no_scheduler=False, num_workers=4, opt_lr=0.01, out='models/model_inception_v3_2020-05-03 19.22.26.pth', plot_hist=True, save_best=True, stop_accuracy=0.4, teacher_file='')
Model inception_v3 require grad = False
device cuda:0
Adaptive
Weights [0.5, 1, 1, 1, 1, 1, 1, 0.5]
Batch size 10
Classes: good celeb casino guns illegal narco porno yellow
Run training

