Logging Timestamp 2020-03-19 14.00.46

Namespace(batch=50, batch_count=1, checkpoint=-1, data_dir='data', epochs=8, memory_usage=True, model='resnet50', num_workers=4, opt_lr=0.01, out='models/model_resnet50_2020-03-19 14.00.46.pth', plot_hist=True, save_best=True, stop_accuracy=0.4, teacher_file='')
Model require grad = False
device cuda:0
Batch size 50
Classes: good celebrity casino guns illegal porno yellow
Run training

